{
  "accessors": [
    {
      "bufferView": 2,
      "componentType": 5126,
      "count": 4,
      "max": [
        1,
        1,
        0
      ],
      "min": [
        -1,
        -1,
        0
      ],
      "type": "VEC3"
    },
    {
      "bufferView": 2,
      "byteOffset": 48,
      "componentType": 5126,
      "count": 4,
      "max": [
        0,
        0,
        1
      ],
      "min": [
        0,
        0,
        1
      ],
      "type": "VEC3"
    },
    {
      "bufferView": 3,
      "componentType": 5126,
      "count": 4,
      "max": [
        1,
        0,
        0,
        1
      ],
      "min": [
        1,
        0,
        0,
        1
      ],
      "type": "VEC4"
    },
    {
      "bufferView": 1,
      "componentType": 5126,
      "count": 4,
      "max": [
        0.99990004301071167,
        0.99990004301071167
      ],
      "min": [
        9.9980010418221354e-05,
        9.9980010418221354e-05
      ],
      "type": "VEC2"
    },
    {
      "bufferView": 0,
      "componentType": 5125,
      "count": 6,
      "max": [
        3
      ],
      "min": [
        0
      ],
      "type": "SCALAR"
    },
    {
      "bufferView": 2,
      "byteOffset": 96,
      "componentType": 5126,
      "count": 24,
      "max": [
        0.43528947234153748,
        0.32215806841850281,
        0.1568242609500885
      ],
      "min": [
        -0.23192666471004486,
        -0.71048223972320557,
        -0.14598873257637024
      ],
      "type": "VEC3"
    },
    {
      "bufferView": 2,
      "byteOffset": 384,
      "componentType": 5126,
      "count": 24,
      "max": [
        0.83450490236282349,
        0.52986335754394531,
        0.975250244140625
      ],
      "min": [
        -0.8375357985496521,
        -0.52543026208877563,
        -0.21189296245574951
      ],
      "type": "VEC3"
    },
    {
      "bufferView": 3,
      "byteOffset": 64,
      "componentType": 5126,
      "count": 24,
      "max": [
        -0.45680695772171021,
        0.8509027361869812,
        0.3063470721244812,
        1
      ],
      "min": [
        -0.53532290458679199,
        0.83385032415390015,
        -0.060034207999706268,
        1
      ],
      "type": "VEC4"
    },
    {
      "bufferView": 1,
      "byteOffset": 32,
      "componentType": 5126,
      "count": 24,
      "max": [
        0.54574018716812134,
        0.99099618196487427
      ],
      "min": [
        0.17133021354675293,
        0.84969508647918701
      ],
      "type": "VEC2"
    },
    {
      "bufferView": 0,
      "byteOffset": 24,
      "componentType": 5125,
      "count": 36,
      "max": [
        23
      ],
      "min": [
        0
      ],
      "type": "SCALAR"
    },
    {
      "bufferView": 2,
      "byteOffset": 672,
      "componentType": 5126,
      "count": 162,
      "max": [
        0.96172249317169189,
        1.1105014085769653,
        1
      ],
      "min": [
        -0.96172249317169189,
        -1.1105014085769653,
        -0.97479593753814697
      ],
      "type": "VEC3"
    },
    {
      "bufferView": 2,
      "byteOffset": 2616,
      "componentType": 5126,
      "count": 162,
      "max": [
        1,
        0.86602550745010376,
        1
      ],
      "min": [
        -1,
        -0.86602556705474854,
        -0.30365017056465149
      ],
      "type": "VEC3"
    },
    {
      "bufferView": 3,
      "byteOffset": 448,
      "componentType": 5126,
      "count": 162,
      "max": [
        0.99951857328414917,
        1,
        0.29961240291595459,
        1
      ],
      "min": [
        -0.97598743438720703,
        -0.99999362230300903,
        -0.29557615518569946,
        1
      ],
      "type": "VEC4"
    },
    {
      "bufferView": 1,
      "byteOffset": 224,
      "componentType": 5126,
      "count": 162,
      "max": [
        0.92419236898422241,
        0.99986040592193604
      ],
      "min": [
        0.0001395961589878425,
        0.0001395961589878425
      ],
      "type": "VEC2"
    },
    {
      "bufferView": 0,
      "byteOffset": 168,
      "componentType": 5125,
      "count": 264,
      "max": [
        161
      ],
      "min": [
        0
      ],
      "type": "SCALAR"
    },
    {
      "bufferView": 2,
      "byteOffset": 4560,
      "componentType": 5126,
      "count": 162,
      "max": [
        0.96172249317169189,
        1.1105014085769653,
        1
      ],
      "min": [
        -0.96172249317169189,
        -1.1105014085769653,
        -0.97479593753814697
      ],
      "type": "VEC3"
    },
    {
      "bufferView": 2,
      "byteOffset": 6504,
      "componentType": 5126,
      "count": 162,
      "max": [
        1,
        0.86602550745010376,
        1
      ],
      "min": [
        -1,
        -0.86602556705474854,
        -0.30365017056465149
      ],
      "type": "VEC3"
    },
    {
      "bufferView": 3,
      "byteOffset": 3040,
      "componentType": 5126,
      "count": 162,
      "max": [
        0.99951857328414917,
        1,
        0.29961240291595459,
        1
      ],
      "min": [
        -0.97598743438720703,
        -0.99999362230300903,
        -0.29557615518569946,
        1
      ],
      "type": "VEC4"
    },
    {
      "bufferView": 1,
      "byteOffset": 1520,
      "componentType": 5126,
      "count": 162,
      "max": [
        0.92419236898422241,
        0.99986040592193604
      ],
      "min": [
        0.0001395961589878425,
        0.0001395961589878425
      ],
      "type": "VEC2"
    },
    {
      "bufferView": 0,
      "byteOffset": 1224,
      "componentType": 5125,
      "count": 264,
      "max": [
        161
      ],
      "min": [
        0
      ],
      "type": "SCALAR"
    },
    {
      "bufferView": 2,
      "byteOffset": 8448,
      "componentType": 5126,
      "count": 72,
      "max": [
        0.24788564443588257,
        0.95188146829605103,
        0.1233847513794899
      ],
      "min": [
        -0.24788576364517212,
        -0.73212528228759766,
        -0.1233847513794899
      ],
      "type": "VEC3"
    },
    {
      "bufferView": 2,
      "byteOffset": 9312,
      "componentType": 5126,
      "count": 72,
      "max": [
        1,
        1,
        1
      ],
      "min": [
        -1,
        -1,
        -1
      ],
      "type": "VEC3"
    },
    {
      "bufferView": 3,
      "byteOffset": 5632,
      "componentType": 5126,
      "count": 72,
      "max": [
        1,
        1,
        0.28744733333587646,
        1
      ],
      "min": [
        -0.55849921703338623,
        -2.1438613657664973e-06,
        -0.28744730353355408,
        1
      ],
      "type": "VEC4"
    },
    {
      "bufferView": 1,
      "byteOffset": 2816,
      "componentType": 5126,
      "count": 72,
      "max": [
        0.9998016357421875,
        0.9143947958946228
      ],
      "min": [
        0.00019834536942653358,
        0.00019834536942653358
      ],
      "type": "VEC2"
    },
    {
      "bufferView": 0,
      "byteOffset": 2280,
      "componentType": 5125,
      "count": 108,
      "max": [
        71
      ],
      "min": [
        0
      ],
      "type": "SCALAR"
    },
    {
      "bufferView": 2,
      "byteOffset": 10176,
      "componentType": 5126,
      "count": 72,
      "max": [
        0.24788564443588257,
        0.95188146829605103,
        0.1233847513794899
      ],
      "min": [
        -0.24788576364517212,
        -0.73212528228759766,
        -0.1233847513794899
      ],
      "type": "VEC3"
    },
    {
      "bufferView": 2,
      "byteOffset": 11040,
      "componentType": 5126,
      "count": 72,
      "max": [
        1,
        1,
        1
      ],
      "min": [
        -1,
        -1,
        -1
      ],
      "type": "VEC3"
    },
    {
      "bufferView": 3,
      "byteOffset": 6784,
      "componentType": 5126,
      "count": 72,
      "max": [
        1,
        1,
        0.28744733333587646,
        1
      ],
      "min": [
        -0.55849921703338623,
        -2.1438613657664973e-06,
        -0.28744730353355408,
        1
      ],
      "type": "VEC4"
    },
    {
      "bufferView": 1,
      "byteOffset": 3392,
      "componentType": 5126,
      "count": 72,
      "max": [
        0.9998016357421875,
        0.9143947958946228
      ],
      "min": [
        0.00019834536942653358,
        0.00019834536942653358
      ],
      "type": "VEC2"
    },
    {
      "bufferView": 0,
      "byteOffset": 2712,
      "componentType": 5125,
      "count": 108,
      "max": [
        71
      ],
      "min": [
        0
      ],
      "type": "SCALAR"
    },
    {
      "bufferView": 2,
      "byteOffset": 11904,
      "componentType": 5126,
      "count": 72,
      "max": [
        0.24788564443588257,
        0.95188146829605103,
        0.1233847513794899
      ],
      "min": [
        -0.24788576364517212,
        -0.73212528228759766,
        -0.1233847513794899
      ],
      "type": "VEC3"
    },
    {
      "bufferView": 2,
      "byteOffset": 12768,
      "componentType": 5126,
      "count": 72,
      "max": [
        1,
        1,
        1
      ],
      "min": [
        -1,
        -1,
        -1
      ],
      "type": "VEC3"
    },
    {
      "bufferView": 3,
      "byteOffset": 7936,
      "componentType": 5126,
      "count": 72,
      "max": [
        1,
        1,
        0.28744733333587646,
        1
      ],
      "min": [
        -0.55849921703338623,
        -2.1438613657664973e-06,
        -0.28744730353355408,
        1
      ],
      "type": "VEC4"
    },
    {
      "bufferView": 1,
      "byteOffset": 3968,
      "componentType": 5126,
      "count": 72,
      "max": [
        0.9998016357421875,
        0.9143947958946228
      ],
      "min": [
        0.00019834536942653358,
        0.00019834536942653358
      ],
      "type": "VEC2"
    },
    {
      "bufferView": 0,
      "byteOffset": 3144,
      "componentType": 5125,
      "count": 108,
      "max": [
        71
      ],
      "min": [
        0
      ],
      "type": "SCALAR"
    },
    {
      "bufferView": 2,
      "byteOffset": 13632,
      "componentType": 5126,
      "count": 72,
      "max": [
        0.24788564443588257,
        0.95188146829605103,
        0.1233847513794899
      ],
      "min": [
        -0.24788576364517212,
        -0.73212528228759766,
        -0.1233847513794899
      ],
      "type": "VEC3"
    },
    {
      "bufferView": 2,
      "byteOffset": 14496,
      "componentType": 5126,
      "count": 72,
      "max": [
        1,
        1,
        1
      ],
      "min": [
        -1,
        -1,
        -1
      ],
      "type": "VEC3"
    },
    {
      "bufferView": 3,
      "byteOffset": 9088,
      "componentType": 5126,
      "count": 72,
      "max": [
        1,
        1,
        0.28744733333587646,
        1
      ],
      "min": [
        -0.55849921703338623,
        -2.1438613657664973e-06,
        -0.28744730353355408,
        1
      ],
      "type": "VEC4"
    },
    {
      "bufferView": 1,
      "byteOffset": 4544,
      "componentType": 5126,
      "count": 72,
      "max": [
        0.9998016357421875,
        0.9143947958946228
      ],
      "min": [
        0.00019834536942653358,
        0.00019834536942653358
      ],
      "type": "VEC2"
    },
    {
      "bufferView": 0,
      "byteOffset": 3576,
      "componentType": 5125,
      "count": 108,
      "max": [
        71
      ],
      "min": [
        0
      ],
      "type": "SCALAR"
    },
    {
      "bufferView": 2,
      "byteOffset": 15360,
      "componentType": 5126,
      "count": 72,
      "max": [
        0.24788564443588257,
        0.95188146829605103,
        0.1233847513794899
      ],
      "min": [
        -0.24788576364517212,
        -0.73212528228759766,
        -0.1233847513794899
      ],
      "type": "VEC3"
    },
    {
      "bufferView": 2,
      "byteOffset": 16224,
      "componentType": 5126,
      "count": 72,
      "max": [
        1,
        1,
        1
      ],
      "min": [
        -1,
        -1,
        -1
      ],
      "type": "VEC3"
    },
    {
      "bufferView": 3,
      "byteOffset": 10240,
      "componentType": 5126,
      "count": 72,
      "max": [
        1,
        1,
        0.28744733333587646,
        1
      ],
      "min": [
        -0.55849921703338623,
        -2.1438613657664973e-06,
        -0.28744730353355408,
        1
      ],
      "type": "VEC4"
    },
    {
      "bufferView": 1,
      "byteOffset": 5120,
      "componentType": 5126,
      "count": 72,
      "max": [
        0.9998016357421875,
        0.9143947958946228
      ],
      "min": [
        0.00019834536942653358,
        0.00019834536942653358
      ],
      "type": "VEC2"
    },
    {
      "bufferView": 0,
      "byteOffset": 4008,
      "componentType": 5125,
      "count": 108,
      "max": [
        71
      ],
      "min": [
        0
      ],
      "type": "SCALAR"
    },
    {
      "bufferView": 2,
      "byteOffset": 17088,
      "componentType": 5126,
      "count": 70,
      "max": [
        0.28324198722839355,
        1.1870365142822266,
        4.0924549102783203
      ],
      "min": [
        0.046324968338012695,
        -0.5614858865737915,
        0.63271224498748779
      ],
      "type": "VEC3"
    },
    {
      "bufferView": 2,
      "byteOffset": 17928,
      "componentType": 5126,
      "count": 70,
      "max": [
        0.99987912178039551,
        0.95045769214630127,
        0.61544078588485718
      ],
      "min": [
        -0.99987918138504028,
        -0.99953758716583252,
        -0.3118114173412323
      ],
      "type": "VEC3"
    },
    {
      "bufferView": 3,
      "byteOffset": 11392,
      "componentType": 5126,
      "count": 70,
      "max": [
        0.99999964237213135,
        0.93650013208389282,
        0.94853854179382324,
        1
      ],
      "min": [
        -0.85167771577835083,
        -0.98267877101898193,
        -0.96695226430892944,
        -1
      ],
      "type": "VEC4"
    },
    {
      "bufferView": 1,
      "byteOffset": 5696,
      "componentType": 5126,
      "count": 70,
      "max": [
        0.98058044910430908,
        0.99326598644256592
      ],
      "min": [
        0.0095563679933547974,
        0.016850292682647705
      ],
      "type": "VEC2"
    },
    {
      "bufferView": 0,
      "byteOffset": 4440,
      "componentType": 5125,
      "count": 120,
      "max": [
        69
      ],
      "min": [
        0
      ],
      "type": "SCALAR"
    },
    {
      "bufferView": 2,
      "byteOffset": 18768,
      "componentType": 5126,
      "count": 72,
      "max": [
        1,
        3.9394149780273438,
        1
      ],
      "min": [
        -1,
        -5.2450456619262695,
        -1
      ],
      "type": "VEC3"
    },
    {
      "bufferView": 2,
      "byteOffset": 19632,
      "componentType": 5126,
      "count": 72,
      "max": [
        1,
        1,
        1
      ],
      "min": [
        -1,
        -0.99999964237213135,
        -1
      ],
      "type": "VEC3"
    },
    {
      "bufferView": 3,
      "byteOffset": 12512,
      "componentType": 5126,
      "count": 72,
      "max": [
        0.0028254510834813118,
        1,
        1,
        1
      ],
      "min": [
        -0.0018540374003350735,
        -0.9999769926071167,
        -0.99998897314071655,
        -1
      ],
      "type": "VEC4"
    },
    {
      "bufferView": 1,
      "byteOffset": 6256,
      "componentType": 5126,
      "count": 72,
      "max": [
        0.99742025136947632,
        0.99473869800567627
      ],
      "min": [
        0.00018143653869628906,
        0.012194648385047913
      ],
      "type": "VEC2"
    },
    {
      "bufferView": 0,
      "byteOffset": 4920,
      "componentType": 5125,
      "count": 120,
      "max": [
        71
      ],
      "min": [
        0
      ],
      "type": "SCALAR"
    },
    {
      "bufferView": 2,
      "byteOffset": 20496,
      "componentType": 5126,
      "count": 262,
      "max": [
        1.1557917594909668,
        1.8385312557220459,
        0.26662823557853699
      ],
      "min": [
        -1.1557917594909668,
        -2.3968932628631592,
        -1.0681836605072021
      ],
      "type": "VEC3"
    },
    {
      "bufferView": 2,
      "byteOffset": 23640,
      "componentType": 5126,
      "count": 262,
      "max": [
        0.97637224197387695,
        1,
        1
      ],
      "min": [
        -0.97637224197387695,
        -1,
        -0.90861290693283081
      ],
      "type": "VEC3"
    },
    {
      "bufferView": 3,
      "byteOffset": 13664,
      "componentType": 5126,
      "count": 262,
      "max": [
        0.99787068367004395,
        0.99999505281448364,
        0.95707517862319946,
        1
      ],
      "min": [
        -0.99904936552047729,
        -5.0337018997481664e-09,
        -0.98500984907150269,
        -1
      ],
      "type": "VEC4"
    },
    {
      "bufferView": 1,
      "byteOffset": 6832,
      "componentType": 5126,
      "count": 262,
      "max": [
        1.002328634262085,
        0.99618446826934814
      ],
      "min": [
        -0.0013743835734203458,
        0.0042780302464962006
      ],
      "type": "VEC2"
    },
    {
      "bufferView": 0,
      "byteOffset": 5400,
      "componentType": 5125,
      "count": 402,
      "max": [
        261
      ],
      "min": [
        0
      ],
      "type": "SCALAR"
    },
    {
      "bufferView": 2,
      "byteOffset": 26784,
      "componentType": 5126,
      "count": 24,
      "max": [
        0.36866450309753418,
        0.32227253913879395,
        0.14750976860523224
      ],
      "min": [
        -0.23514072597026825,
        -0.70723611116409302,
        -0.16401046514511108
      ],
      "type": "VEC3"
    },
    {
      "bufferView": 2,
      "byteOffset": 27072,
      "componentType": 5126,
      "count": 24,
      "max": [
        0.87275463342666626,
        0.52807724475860596,
        0.97625917196273804
      ],
      "min": [
        -0.87275427579879761,
        -0.52807748317718506,
        -0.2136724591255188
      ],
      "type": "VEC3"
    },
    {
      "bufferView": 3,
      "byteOffset": 17856,
      "componentType": 5126,
      "count": 24,
      "max": [
        -0.44124743342399597,
        0.89652514457702637,
        0.29542571306228638,
        1
      ],
      "min": [
        -0.46698528528213501,
        0.83576428890228271,
        0.02872946485877037,
        1
      ],
      "type": "VEC4"
    },
    {
      "bufferView": 1,
      "byteOffset": 8928,
      "componentType": 5126,
      "count": 24,
      "max": [
        0.54574018716812134,
        0.99099618196487427
      ],
      "min": [
        0.17133021354675293,
        0.84969508647918701
      ],
      "type": "VEC2"
    },
    {
      "bufferView": 0,
      "byteOffset": 7008,
      "componentType": 5125,
      "count": 36,
      "max": [
        23
      ],
      "min": [
        0
      ],
      "type": "SCALAR"
    },
    {
      "bufferView": 2,
      "byteOffset": 27360,
      "componentType": 5126,
      "count": 40,
      "max": [
        9.3095808029174805,
        3.963040828704834,
        1.4574319124221802
      ],
      "min": [
        -6.4759435653686523,
        -5.8664445877075195,
        -1.4545363187789917
      ],
      "type": "VEC3"
    },
    {
      "bufferView": 2,
      "byteOffset": 27840,
      "componentType": 5126,
      "count": 40,
      "max": [
        0.84491145610809326,
        0.88899868726730347,
        0.9968302845954895
      ],
      "min": [
        -0.84491109848022461,
        -0.88899827003479004,
        0
      ],
      "type": "VEC3"
    },
    {
      "bufferView": 3,
      "byteOffset": 18240,
      "componentType": 5126,
      "count": 40,
      "max": [
        0.0016722404398024082,
        0.47842201590538025,
        0.99999988079071045,
        1
      ],
      "min": [
        -0.87812978029251099,
        -0.84491080045700073,
        -1,
        1
      ],
      "type": "VEC4"
    },
    {
      "bufferView": 1,
      "byteOffset": 9120,
      "componentType": 5126,
      "count": 40,
      "max": [
        0.99567967653274536,
        0.99242758750915527
      ],
      "min": [
        0.01628849096596241,
        0.013414929620921612
      ],
      "type": "VEC2"
    },
    {
      "bufferView": 0,
      "byteOffset": 7152,
      "componentType": 5125,
      "count": 60,
      "max": [
        39
      ],
      "min": [
        0
      ],
      "type": "SCALAR"
    },
    {
      "bufferView": 2,
      "byteOffset": 28320,
      "componentType": 5126,
      "count": 96,
      "max": [
        1.6651402711868286,
        2.4680492877960205,
        0.35719591379165649
      ],
      "min": [
        -0.85197436809539795,
        -0.44328424334526062,
        -1.0308258533477783
      ],
      "type": "VEC3"
    },
    {
      "bufferView": 2,
      "byteOffset": 29472,
      "componentType": 5126,
      "count": 96,
      "max": [
        1,
        0.61722749471664429,
        0.99966168403625488
      ],
      "min": [
        -1,
        -0.61036974191665649,
        -0.18687613308429718
      ],
      "type": "VEC3"
    },
    {
      "bufferView": 3,
      "byteOffset": 18880,
      "componentType": 5126,
      "count": 96,
      "max": [
        0.01300368644297123,
        0.99992328882217407,
        0.36015051603317261,
        1
      ],
      "min": [
        -0.62084430456161499,
        0.67683851718902588,
        -0.62912935018539429,
        1
      ],
      "type": "VEC4"
    },
    {
      "bufferView": 1,
      "byteOffset": 9440,
      "componentType": 5126,
      "count": 96,
      "max": [
        0.99836158752441406,
        0.99099618196487427
      ],
      "min": [
        0.0020926827564835548,
        0.84969508647918701
      ],
      "type": "VEC2"
    },
    {
      "bufferView": 0,
      "byteOffset": 7392,
      "componentType": 5125,
      "count": 144,
      "max": [
        95
      ],
      "min": [
        0
      ],
      "type": "SCALAR"
    },
    {
      "bufferView": 2,
      "byteOffset": 30624,
      "componentType": 5126,
      "count": 80,
      "max": [
        5.6237978935241699,
        11.089840888977051,
        1.8787312507629395
      ],
      "min": [
        -5.2998943328857422,
        -10.521298408508301,
        -1.2316310405731201
      ],
      "type": "VEC3"
    },
    {
      "bufferView": 2,
      "byteOffset": 31584,
      "componentType": 5126,
      "count": 80,
      "max": [
        1,
        1,
        1
      ],
      "min": [
        -1,
        -1,
        0
      ],
      "type": "VEC3"
    },
    {
      "bufferView": 3,
      "byteOffset": 20416,
      "componentType": 5126,
      "count": 80,
      "max": [
        1,
        1,
        1,
        1
      ],
      "min": [
        -0.003264780156314373,
        -1,
        -1,
        1
      ],
      "type": "VEC4"
    },
    {
      "bufferView": 1,
      "byteOffset": 10208,
      "componentType": 5126,
      "count": 80,
      "max": [
        0.99634546041488647,
        0.9924883246421814
      ],
      "min": [
        0.016337933018803596,
        0.012940357439219952
      ],
      "type": "VEC2"
    },
    {
      "bufferView": 0,
      "byteOffset": 7968,
      "componentType": 5125,
      "count": 120,
      "max": [
        79
      ],
      "min": [
        0
      ],
      "type": "SCALAR"
    },
    {
      "bufferView": 2,
      "byteOffset": 32544,
      "componentType": 5126,
      "count": 498,
      "max": [
        1.5772886276245117,
        2.1517095565795898,
        1.8424675464630127
      ],
      "min": [
        -1.5446348190307617,
        -2.244426965713501,
        -0.64045053720474243
      ],
      "type": "VEC3"
    },
    {
      "bufferView": 2,
      "byteOffset": 38520,
      "componentType": 5126,
      "count": 498,
      "max": [
        1,
        1,
        1
      ],
      "min": [
        -1,
        -1,
        -0.82071304321289062
      ],
      "type": "VEC3"
    },
    {
      "bufferView": 3,
      "byteOffset": 21696,
      "componentType": 5126,
      "count": 498,
      "max": [
        1,
        1,
        1,
        1
      ],
      "min": [
        -1,
        -1,
        -0.9999767541885376,
        -1
      ],
      "type": "VEC4"
    },
    {
      "bufferView": 1,
      "byteOffset": 10848,
      "componentType": 5126,
      "count": 498,
      "max": [
        0.99834370613098145,
        0.99517720937728882
      ],
      "min": [
        0.0043240971863269806,
        0.001947969663888216
      ],
      "type": "VEC2"
    },
    {
      "bufferView": 0,
      "byteOffset": 8448,
      "componentType": 5125,
      "count": 762,
      "max": [
        497
      ],
      "min": [
        0
      ],
      "type": "SCALAR"
    },
    {
      "bufferView": 2,
      "byteOffset": 44496,
      "componentType": 5126,
      "count": 160,
      "max": [
        0.16565954685211182,
        0.9049869179725647,
        0.046560421586036682
      ],
      "min": [
        -2.8803946971893311,
        -0.78471130132675171,
        -0.15780660510063171
      ],
      "type": "VEC3"
    },
    {
      "bufferView": 2,
      "byteOffset": 46416,
      "componentType": 5126,
      "count": 160,
      "max": [
        1,
        1,
        1
      ],
      "min": [
        -1,
        -1,
        0
      ],
      "type": "VEC3"
    },
    {
      "bufferView": 3,
      "byteOffset": 29664,
      "componentType": 5126,
      "count": 160,
      "max": [
        0.76412808895111084,
        1,
        0.96655392646789551,
        1
      ],
      "min": [
        -0.76393020153045654,
        -0.99980455636978149,
        -0.99249070882797241,
        1
      ],
      "type": "VEC4"
    },
    {
      "bufferView": 1,
      "byteOffset": 14832,
      "componentType": 5126,
      "count": 160,
      "max": [
        0.99628567695617676,
        0.9858018159866333
      ],
      "min": [
        0.0050333975814282894,
        0.62721246480941772
      ],
      "type": "VEC2"
    },
    {
      "bufferView": 0,
      "byteOffset": 11496,
      "componentType": 5125,
      "count": 240,
      "max": [
        159
      ],
      "min": [
        0
      ],
      "type": "SCALAR"
    },
    {
      "bufferView": 2,
      "byteOffset": 48336,
      "componentType": 5126,
      "count": 262,
      "max": [
        1.1557917594909668,
        1.8385312557220459,
        0.26662823557853699
      ],
      "min": [
        -1.1557917594909668,
        -2.3968932628631592,
        -1.0681836605072021
      ],
      "type": "VEC3"
    },
    {
      "bufferView": 2,
      "byteOffset": 51480,
      "componentType": 5126,
      "count": 262,
      "max": [
        0.97637224197387695,
        1,
        1
      ],
      "min": [
        -0.97637224197387695,
        -1,
        -0.90861290693283081
      ],
      "type": "VEC3"
    },
    {
      "bufferView": 3,
      "byteOffset": 32224,
      "componentType": 5126,
      "count": 262,
      "max": [
        0.99787068367004395,
        0.99999505281448364,
        0.95707517862319946,
        1
      ],
      "min": [
        -0.99904936552047729,
        -5.0337018997481664e-09,
        -0.98500984907150269,
        -1
      ],
      "type": "VEC4"
    },
    {
      "bufferView": 1,
      "byteOffset": 16112,
      "componentType": 5126,
      "count": 262,
      "max": [
        1.002328634262085,
        0.99618446826934814
      ],
      "min": [
        -0.0013743835734203458,
        0.0042780302464962006
      ],
      "type": "VEC2"
    },
    {
      "bufferView": 0,
      "byteOffset": 12456,
      "componentType": 5125,
      "count": 402,
      "max": [
        261
      ],
      "min": [
        0
      ],
      "type": "SCALAR"
    },
    {
      "bufferView": 2,
      "byteOffset": 54624,
      "componentType": 5126,
      "count": 56,
      "max": [
        0.89281553030014038,
        1.0778640508651733,
        1.7233229875564575
      ],
      "min": [
        -0.89281541109085083,
        -1.0965912342071533,
        -1.449343204498291
      ],
      "type": "VEC3"
    },
    {
      "bufferView": 2,
      "byteOffset": 55296,
      "componentType": 5126,
      "count": 56,
      "max": [
        1,
        0.99988859891891479,
        1
      ],
      "min": [
        -1,
        -0.99988859891891479,
        -0.015520461834967136
      ],
      "type": "VEC3"
    },
    {
      "bufferView": 3,
      "byteOffset": 36416,
      "componentType": 5126,
      "count": 56,
      "max": [
        1,
        1.1337927389831748e-05,
        1,
        1
      ],
      "min": [
        -2.7946856562266476e-07,
        -0.0071225580759346485,
        -1.5313048606913071e-06,
        1
      ],
      "type": "VEC4"
    },
    {
      "bufferView": 1,
      "byteOffset": 18208,
      "componentType": 5126,
      "count": 56,
      "max": [
        0.99556648731231689,
        0.99990385770797729
      ],
      "min": [
        9.6066461992450058e-05,
        9.6066461992450058e-05
      ],
      "type": "VEC2"
    },
    {
      "bufferView": 0,
      "byteOffset": 14064,
      "componentType": 5125,
      "count": 90,
      "max": [
        55
      ],
      "min": [
        0
      ],
      "type": "SCALAR"
    },
    {
      "bufferView": 2,
      "byteOffset": 55968,
      "componentType": 5126,
      "count": 72,
      "max": [
        1,
        3.9394149780273438,
        1
      ],
      "min": [
        -1,
        -5.2450456619262695,
        -1
      ],
      "type": "VEC3"
    },
    {
      "bufferView": 2,
      "byteOffset": 56832,
      "componentType": 5126,
      "count": 72,
      "max": [
        1,
        1,
        1
      ],
      "min": [
        -1,
        -0.99999964237213135,
        -1
      ],
      "type": "VEC3"
    },
    {
      "bufferView": 3,
      "byteOffset": 37312,
      "componentType": 5126,
      "count": 72,
      "max": [
        0.0028254510834813118,
        1,
        1,
        1
      ],
      "min": [
        -0.0018540374003350735,
        -0.9999769926071167,
        -0.99998897314071655,
        -1
      ],
      "type": "VEC4"
    },
    {
      "bufferView": 1,
      "byteOffset": 18656,
      "componentType": 5126,
      "count": 72,
      "max": [
        0.99742025136947632,
        0.99473869800567627
      ],
      "min": [
        0.00018143653869628906,
        0.012194648385047913
      ],
      "type": "VEC2"
    },
    {
      "bufferView": 0,
      "byteOffset": 14424,
      "componentType": 5125,
      "count": 120,
      "max": [
        71
      ],
      "min": [
        0
      ],
      "type": "SCALAR"
    },
    {
      "bufferView": 2,
      "byteOffset": 57696,
      "componentType": 5126,
      "count": 72,
      "max": [
        0.24788564443588257,
        0.95188146829605103,
        0.1233847513794899
      ],
      "min": [
        -0.24788576364517212,
        -0.73212528228759766,
        -0.1233847513794899
      ],
      "type": "VEC3"
    },
    {
      "bufferView": 2,
      "byteOffset": 58560,
      "componentType": 5126,
      "count": 72,
      "max": [
        1,
        1,
        1
      ],
      "min": [
        -1,
        -1,
        -1
      ],
      "type": "VEC3"
    },
    {
      "bufferView": 3,
      "byteOffset": 38464,
      "componentType": 5126,
      "count": 72,
      "max": [
        1,
        1,
        0.28744733333587646,
        1
      ],
      "min": [
        -0.55849921703338623,
        -2.1438613657664973e-06,
        -0.28744730353355408,
        1
      ],
      "type": "VEC4"
    },
    {
      "bufferView": 1,
      "byteOffset": 19232,
      "componentType": 5126,
      "count": 72,
      "max": [
        0.9998016357421875,
        0.9143947958946228
      ],
      "min": [
        0.00019834536942653358,
        0.00019834536942653358
      ],
      "type": "VEC2"
    },
    {
      "bufferView": 0,
      "byteOffset": 14904,
      "componentType": 5125,
      "count": 108,
      "max": [
        71
      ],
      "min": [
        0
      ],
      "type": "SCALAR"
    },
    {
      "bufferView": 2,
      "byteOffset": 59424,
      "componentType": 5126,
      "count": 72,
      "max": [
        0.24788564443588257,
        0.95188146829605103,
        0.1233847513794899
      ],
      "min": [
        -0.24788576364517212,
        -0.73212528228759766,
        -0.1233847513794899
      ],
      "type": "VEC3"
    },
    {
      "bufferView": 2,
      "byteOffset": 60288,
      "componentType": 5126,
      "count": 72,
      "max": [
        1,
        1,
        1
      ],
      "min": [
        -1,
        -1,
        -1
      ],
      "type": "VEC3"
    },
    {
      "bufferView": 3,
      "byteOffset": 39616,
      "componentType": 5126,
      "count": 72,
      "max": [
        1,
        1,
        0.28744733333587646,
        1
      ],
      "min": [
        -0.55849921703338623,
        -2.1438613657664973e-06,
        -0.28744730353355408,
        1
      ],
      "type": "VEC4"
    },
    {
      "bufferView": 1,
      "byteOffset": 19808,
      "componentType": 5126,
      "count": 72,
      "max": [
        0.9998016357421875,
        0.9143947958946228
      ],
      "min": [
        0.00019834536942653358,
        0.00019834536942653358
      ],
      "type": "VEC2"
    },
    {
      "bufferView": 0,
      "byteOffset": 15336,
      "componentType": 5125,
      "count": 108,
      "max": [
        71
      ],
      "min": [
        0
      ],
      "type": "SCALAR"
    },
    {
      "bufferView": 2,
      "byteOffset": 61152,
      "componentType": 5126,
      "count": 20,
      "max": [
        10.823554039001465,
        11.011690139770508,
        1.4930740594863892
      ],
      "min": [
        6.2355518341064453,
        6.5766983032226562,
        -1.6792572736740112
      ],
      "type": "VEC3"
    },
    {
      "bufferView": 2,
      "byteOffset": 61392,
      "componentType": 5126,
      "count": 20,
      "max": [
        0.72846883535385132,
        0.68507868051528931,
        0.99962544441223145
      ],
      "min": [
        -0.7284691333770752,
        -0.68507897853851318,
        -0.6352648138999939
      ],
      "type": "VEC3"
    },
    {
      "bufferView": 3,
      "byteOffset": 40768,
      "componentType": 5126,
      "count": 20,
      "max": [
        0.43653914332389832,
        0.60825270414352417,
        0.78321772813796997,
        1
      ],
      "min": [
        -0.79525452852249146,
        -0.46349224448204041,
        -0.78300201892852783,
        1
      ],
      "type": "VEC4"
    },
    {
      "bufferView": 1,
      "byteOffset": 20384,
      "componentType": 5126,
      "count": 20,
      "max": [
        0.99541324377059937,
        0.99197471141815186
      ],
      "min": [
        0.01619008369743824,
        0.013051728717982769
      ],
      "type": "VEC2"
    },
    {
      "bufferView": 0,
      "byteOffset": 15768,
      "componentType": 5125,
      "count": 30,
      "max": [
        19
      ],
      "min": [
        0
      ],
      "type": "SCALAR"
    },
    {
      "bufferView": 2,
      "byteOffset": 61632,
      "componentType": 5126,
      "count": 36,
      "max": [
        0.97162365913391113,
        0.31332466006278992,
        0.28785407543182373
      ],
      "min": [
        -0.91646742820739746,
        -0.30153393745422363,
        -0.18304747343063354
      ],
      "type": "VEC3"
    },
    {
      "bufferView": 2,
      "byteOffset": 62064,
      "componentType": 5126,
      "count": 36,
      "max": [
        0.33577644824981689,
        0.92032933235168457,
        0.9516606330871582
      ],
      "min": [
        -0.33577734231948853,
        -0.92032879590988159,
        -0.29132431745529175
      ],
      "type": "VEC3"
    },
    {
      "bufferView": 3,
      "byteOffset": 41088,
      "componentType": 5126,
      "count": 36,
      "max": [
        0.96601450443267822,
        -0.21517314016819,
        0.37973514199256897,
        1
      ],
      "min": [
        0.8991960883140564,
        -0.31362634897232056,
        -0.12086480855941772,
        1
      ],
      "type": "VEC4"
    },
    {
      "bufferView": 1,
      "byteOffset": 20544,
      "componentType": 5126,
      "count": 36,
      "max": [
        0.99836206436157227,
        0.99100589752197266
      ],
      "min": [
        0.002090423833578825,
        0.84969919919967651
      ],
      "type": "VEC2"
    },
    {
      "bufferView": 0,
      "byteOffset": 15888,
      "componentType": 5125,
      "count": 54,
      "max": [
        35
      ],
      "min": [
        0
      ],
      "type": "SCALAR"
    },
    {
      "bufferView": 2,
      "byteOffset": 62496,
      "componentType": 5126,
      "count": 72,
      "max": [
        0.24788564443588257,
        0.95188146829605103,
        0.1233847513794899
      ],
      "min": [
        -0.24788576364517212,
        -0.73212528228759766,
        -0.1233847513794899
      ],
      "type": "VEC3"
    },
    {
      "bufferView": 2,
      "byteOffset": 63360,
      "componentType": 5126,
      "count": 72,
      "max": [
        1,
        1,
        1
      ],
      "min": [
        -1,
        -1,
        -1
      ],
      "type": "VEC3"
    },
    {
      "bufferView": 3,
      "byteOffset": 41664,
      "componentType": 5126,
      "count": 72,
      "max": [
        1,
        1,
        0.28744733333587646,
        1
      ],
      "min": [
        -0.55849921703338623,
        -2.1438613657664973e-06,
        -0.28744730353355408,
        1
      ],
      "type": "VEC4"
    },
    {
      "bufferView": 1,
      "byteOffset": 20832,
      "componentType": 5126,
      "count": 72,
      "max": [
        0.9998016357421875,
        0.9143947958946228
      ],
      "min": [
        0.00019834536942653358,
        0.00019834536942653358
      ],
      "type": "VEC2"
    },
    {
      "bufferView": 0,
      "byteOffset": 16104,
      "componentType": 5125,
      "count": 108,
      "max": [
        71
      ],
      "min": [
        0
      ],
      "type": "SCALAR"
    }
  ],
  "asset": {
    "extras": {
      "author": "RacKrab (https://sketchfab.com/RacKrab)",
      "license": "CC-BY-4.0 (http://creativecommons.org/licenses/by/4.0/)",
      "source": "https://sketchfab.com/models/ab42b86b241841e2a4042dea9f1d71ae",
      "title": "Fisherman house v.2"
    },
    "generator": "Sketchfab-4.2.0",
    "version": "2.0"
  },
  "bufferViews": [
    {
      "buffer": 0,
      "byteLength": 16536,
      "byteOffset": 0,
      "name": "floatBufferViews",
      "target": 34963
    },
    {
      "buffer": 0,
      "byteLength": 21408,
      "byteOffset": 16536,
      "byteStride": 8,
      "name": "floatBufferViews",
      "target": 34962
    },
    {
      "buffer": 0,
      "byteLength": 64224,
      "byteOffset": 37944,
      "byteStride": 12,
      "name": "floatBufferViews",
      "target": 34962
    },
    {
      "buffer": 0,
      "byteLength": 42816,
      "byteOffset": 102168,
      "byteStride": 16,
      "name": "floatBufferViews",
      "target": 34962
    }
  ],
  "buffers": [
    {
      "byteLength": 144984,
      "uri": "fishermanHouse_02.bin"
    }
  ],
  "images": [
    {
      "uri": "textures/Material.000_baseColor.png"
    },
    {
      "uri": "textures/Material.008_baseColor.png"
    },
    {
      "uri": "textures/Material.010_baseColor.png"
    },
    {
      "uri": "textures/Material.003_baseColor.png"
    },
    {
      "uri": "textures/Material.007_baseColor.png"
    },
    {
      "uri": "textures/Material_baseColor.png"
    },
    {
      "uri": "textures/Material.004_baseColor.png"
    },
    {
      "uri": "textures/Material.013_baseColor.png"
    },
    {
      "uri": "textures/Material.005_baseColor.png"
    },
    {
      "uri": "textures/Material.012_baseColor.png"
    },
    {
      "uri": "textures/Material.002_baseColor.png"
    },
    {
      "uri": "textures/Material.016_baseColor.png"
    },
    {
      "uri": "textures/Material.011_baseColor.png"
    },
    {
      "uri": "textures/Material.014_baseColor.png"
    }
  ],
  "materials": [
    {
      "alphaCutoff": 1,
      "alphaMode": "MASK",
      "doubleSided": true,
      "emissiveFactor": [
        0,
        0,
        0
      ],
      "name": "Material.016",
      "pbrMetallicRoughness": {
        "baseColorFactor": [
          1,
          1,
          1,
          1
        ],
        "baseColorTexture": {
          "index": 11,
          "texCoord": 0
        },
        "metallicFactor": 0.66634908540000004,
        "roughnessFactor": 1
      }
    },
    {
      "doubleSided": true,
      "emissiveFactor": [
        0,
        0,
        0
      ],
      "name": "Material.002",
      "pbrMetallicRoughness": {
        "baseColorFactor": [
          1,
          1,
          1,
          1
        ],
        "baseColorTexture": {
          "index": 10,
          "texCoord": 0
        },
        "metallicFactor": 0.39805640240000001,
        "roughnessFactor": 0.71169969509999997
      }
    },
    {
      "doubleSided": true,
      "emissiveFactor": [
        0,
        0,
        0
      ],
      "name": "Material",
      "pbrMetallicRoughness": {
        "baseColorFactor": [
          1,
          1,
          1,
          1
        ],
        "baseColorTexture": {
          "index": 5,
          "texCoord": 0
        },
        "metallicFactor": 0.69683689019999995,
        "roughnessFactor": 1
      }
    },
    {
      "doubleSided": true,
      "emissiveFactor": [
        0,
        0,
        0
      ],
      "name": "Material.005",
      "pbrMetallicRoughness": {
        "baseColorFactor": [
          1,
          1,
          1,
          1
        ],
        "baseColorTexture": {
          "index": 8,
          "texCoord": 0
        },
        "metallicFactor": 0.36147103660000002,
        "roughnessFactor": 1
      }
    },
    {
      "doubleSided": true,
      "emissiveFactor": [
        0,
        0,
        0
      ],
      "name": "Material.011",
      "pbrMetallicRoughness": {
        "baseColorFactor": [
          1,
          1,
          1,
          1
        ],
        "baseColorTexture": {
          "index": 12,
          "texCoord": 0
        },
        "metallicFactor": 0,
        "roughnessFactor": 1
      }
    },
    {
      "doubleSided": true,
      "emissiveFactor": [
        0,
        0,
        0
      ],
      "name": "Material.007",
      "pbrMetallicRoughness": {
        "baseColorFactor": [
          1,
          1,
          1,
          1
        ],
        "baseColorTexture": {
          "index": 4,
          "texCoord": 0
        },
        "metallicFactor": 0.495617378,
        "roughnessFactor": 1
      }
    },
    {
      "doubleSided": true,
      "emissiveFactor": [
        0,
        0,
        0
      ],
      "name": "Material.000",
      "pbrMetallicRoughness": {
        "baseColorFactor": [
          1,
          1,
          1,
          1
        ],
        "baseColorTexture": {
          "index": 0,
          "texCoord": 0
        },
        "metallicFactor": 0,
        "roughnessFactor": 0
      }
    },
    {
      "doubleSided": true,
      "emissiveFactor": [
        0,
        0,
        0
      ],
      "name": "Material.004",
      "pbrMetallicRoughness": {
        "baseColorFactor": [
          1,
          1,
          1,
          1
        ],
        "baseColorTexture": {
          "index": 6,
          "texCoord": 0
        },
        "metallicFactor": 0.16025152440000001,
        "roughnessFactor": 0.67511432929999993
      }
    },
    {
      "doubleSided": true,
      "emissiveFactor": [
        0,
        0,
        0
      ],
      "name": "Material.003",
      "pbrMetallicRoughness": {
        "baseColorFactor": [
          1,
          1,
          1,
          1
        ],
        "baseColorTexture": {
          "index": 3,
          "texCoord": 0
        },
        "metallicFactor": 0,
        "roughnessFactor": 1
      }
    },
    {
      "doubleSided": true,
      "emissiveFactor": [
        0,
        0,
        0
      ],
      "name": "Material.008",
      "pbrMetallicRoughness": {
        "baseColorFactor": [
          1,
          1,
          1,
          1
        ],
        "baseColorTexture": {
          "index": 1,
          "texCoord": 0
        },
        "metallicFactor": 0.47732469509999997,
        "roughnessFactor": 0.7177972561
      }
    },
    {
      "doubleSided": true,
      "emissiveFactor": [
        0,
        0,
        0
      ],
      "name": "Material.010",
      "pbrMetallicRoughness": {
        "baseColorFactor": [
          1,
          1,
          1,
          1
        ],
        "baseColorTexture": {
          "index": 2,
          "texCoord": 0
        },
        "metallicFactor": 0.30049542680000002,
        "roughnessFactor": 1
      }
    },
    {
      "doubleSided": true,
      "emissiveFactor": [
        0,
        0,
        0
      ],
      "name": "Material.014",
      "pbrMetallicRoughness": {
        "baseColorFactor": [
          1,
          1,
          1,
          1
        ],
        "baseColorTexture": {
          "index": 13,
          "texCoord": 0
        },
        "metallicFactor": 0.33708079270000002,
        "roughnessFactor": 1
      }
    },
    {
      "doubleSided": true,
      "emissiveFactor": [
        0,
        0,
        0
      ],
      "name": "Material.013",
      "pbrMetallicRoughness": {
        "baseColorFactor": [
          1,
          1,
          1,
          1
        ],
        "baseColorTexture": {
          "index": 7,
          "texCoord": 0
        },
        "metallicFactor": 0,
        "roughnessFactor": 0.82394172570000002
      }
    },
    {
      "doubleSided": true,
      "emissiveFactor": [
        0,
        0,
        0
      ],
      "name": "Material.012",
      "pbrMetallicRoughness": {
        "baseColorFactor": [
          1,
          1,
          1,
          1
        ],
        "baseColorTexture": {
          "index": 9,
          "texCoord": 0
        },
        "metallicFactor": 0.30659298779999999,
        "roughnessFactor": 0.79706554880000002
      }
    }
  ],
  "meshes": [
    {
      "name": "Plane_Material.016_0",
      "primitives": [
        {
          "attributes": {
            "NORMAL": 1,
            "POSITION": 0,
            "TANGENT": 2,
            "TEXCOORD_0": 3
          },
          "indices": 4,
          "material": 0,
          "mode": 4
        }
      ]
    },
    {
      "name": "Cube.011_Material.002_0",
      "primitives": [
        {
          "attributes": {
            "NORMAL": 6,
            "POSITION": 5,
            "TANGENT": 7,
            "TEXCOORD_0": 8
          },
          "indices": 9,
          "material": 1,
          "mode": 4
        }
      ]
    },
    {
      "name": "Cylinder.004_Material_0",
      "primitives": [
        {
          "attributes": {
            "NORMAL": 11,
            "POSITION": 10,
            "TANGENT": 12,
            "TEXCOORD_0": 13
          },
          "indices": 14,
          "material": 2,
          "mode": 4
        }
      ]
    },
    {
      "name": "Cylinder.003_Material_0",
      "primitives": [
        {
          "attributes": {
            "NORMAL": 16,
            "POSITION": 15,
            "TANGENT": 17,
            "TEXCOORD_0": 18
          },
          "indices": 19,
          "material": 2,
          "mode": 4
        }
      ]
    },
    {
      "name": "Cube.027_Material.005_0",
      "primitives": [
        {
          "attributes": {
            "NORMAL": 21,
            "POSITION": 20,
            "TANGENT": 22,
            "TEXCOORD_0": 23
          },
          "indices": 24,
          "material": 3,
          "mode": 4
        }
      ]
    },
    {
      "name": "Cube.026_Material.005_0",
      "primitives": [
        {
          "attributes": {
            "NORMAL": 26,
            "POSITION": 25,
            "TANGENT": 27,
            "TEXCOORD_0": 28
          },
          "indices": 29,
          "material": 3,
          "mode": 4
        }
      ]
    },
    {
      "name": "Cube.025_Material.005_0",
      "primitives": [
        {
          "attributes": {
            "NORMAL": 31,
            "POSITION": 30,
            "TANGENT": 32,
            "TEXCOORD_0": 33
          },
          "indices": 34,
          "material": 3,
          "mode": 4
        }
      ]
    },
    {
      "name": "Cube.024_Material.005_0",
      "primitives": [
        {
          "attributes": {
            "NORMAL": 36,
            "POSITION": 35,
            "TANGENT": 37,
            "TEXCOORD_0": 38
          },
          "indices": 39,
          "material": 3,
          "mode": 4
        }
      ]
    },
    {
      "name": "Cube.023_Material.005_0",
      "primitives": [
        {
          "attributes": {
            "NORMAL": 41,
            "POSITION": 40,
            "TANGENT": 42,
            "TEXCOORD_0": 43
          },
          "indices": 44,
          "material": 3,
          "mode": 4
        }
      ]
    },
    {
      "name": "Cylinder.002_Material.011_0",
      "primitives": [
        {
          "attributes": {
            "NORMAL": 46,
            "POSITION": 45,
            "TANGENT": 47,
            "TEXCOORD_0": 48
          },
          "indices": 49,
          "material": 4,
          "mode": 4
        }
      ]
    },
    {
      "name": "Cube.005_Material.007_0",
      "primitives": [
        {
          "attributes": {
            "NORMAL": 51,
            "POSITION": 50,
            "TANGENT": 52,
            "TEXCOORD_0": 53
          },
          "indices": 54,
          "material": 5,
          "mode": 4
        }
      ]
    },
    {
      "name": "Cube.003_Material.000_0",
      "primitives": [
        {
          "attributes": {
            "NORMAL": 56,
            "POSITION": 55,
            "TANGENT": 57,
            "TEXCOORD_0": 58
          },
          "indices": 59,
          "material": 6,
          "mode": 4
        }
      ]
    },
    {
      "name": "Cube.010_Material.002_0",
      "primitives": [
        {
          "attributes": {
            "NORMAL": 61,
            "POSITION": 60,
            "TANGENT": 62,
            "TEXCOORD_0": 63
          },
          "indices": 64,
          "material": 1,
          "mode": 4
        }
      ]
    },
    {
      "name": "Cube.009_Material.004_0",
      "primitives": [
        {
          "attributes": {
            "NORMAL": 66,
            "POSITION": 65,
            "TANGENT": 67,
            "TEXCOORD_0": 68
          },
          "indices": 69,
          "material": 7,
          "mode": 4
        }
      ]
    },
    {
      "name": "Cube.123_Material.002_0",
      "primitives": [
        {
          "attributes": {
            "NORMAL": 71,
            "POSITION": 70,
            "TANGENT": 72,
            "TEXCOORD_0": 73
          },
          "indices": 74,
          "material": 1,
          "mode": 4
        }
      ]
    },
    {
      "name": "Cube.125_Material.004_0",
      "primitives": [
        {
          "attributes": {
            "NORMAL": 76,
            "POSITION": 75,
            "TANGENT": 77,
            "TEXCOORD_0": 78
          },
          "indices": 79,
          "material": 7,
          "mode": 4
        }
      ]
    },
    {
      "name": "Cube.130_Material.003_0",
      "primitives": [
        {
          "attributes": {
            "NORMAL": 81,
            "POSITION": 80,
            "TANGENT": 82,
            "TEXCOORD_0": 83
          },
          "indices": 84,
          "material": 8,
          "mode": 4
        }
      ]
    },
    {
      "name": "Cube.140_Material.008_0",
      "primitives": [
        {
          "attributes": {
            "NORMAL": 86,
            "POSITION": 85,
            "TANGENT": 87,
            "TEXCOORD_0": 88
          },
          "indices": 89,
          "material": 9,
          "mode": 4
        }
      ]
    },
    {
      "name": "Cube_Material.000_0",
      "primitives": [
        {
          "attributes": {
            "NORMAL": 91,
            "POSITION": 90,
            "TANGENT": 92,
            "TEXCOORD_0": 93
          },
          "indices": 94,
          "material": 6,
          "mode": 4
        }
      ]
    },
    {
      "name": "Cube.022_Material.010_0",
      "primitives": [
        {
          "attributes": {
            "NORMAL": 96,
            "POSITION": 95,
            "TANGENT": 97,
            "TEXCOORD_0": 98
          },
          "indices": 99,
          "material": 10,
          "mode": 4
        }
      ]
    },
    {
      "name": "Cube.004_Material.007_0",
      "primitives": [
        {
          "attributes": {
            "NORMAL": 101,
            "POSITION": 100,
            "TANGENT": 102,
            "TEXCOORD_0": 103
          },
          "indices": 104,
          "material": 5,
          "mode": 4
        }
      ]
    },
    {
      "name": "Cube.021_Material.014_0",
      "primitives": [
        {
          "attributes": {
            "NORMAL": 106,
            "POSITION": 105,
            "TANGENT": 107,
            "TEXCOORD_0": 108
          },
          "indices": 109,
          "material": 11,
          "mode": 4
        }
      ]
    },
    {
      "name": "Cube.020_Material.014_0",
      "primitives": [
        {
          "attributes": {
            "NORMAL": 111,
            "POSITION": 110,
            "TANGENT": 112,
            "TEXCOORD_0": 113
          },
          "indices": 114,
          "material": 11,
          "mode": 4
        }
      ]
    },
    {
      "name": "Cube.008_Material.013_0",
      "primitives": [
        {
          "attributes": {
            "NORMAL": 116,
            "POSITION": 115,
            "TANGENT": 117,
            "TEXCOORD_0": 118
          },
          "indices": 119,
          "material": 12,
          "mode": 4
        }
      ]
    },
    {
      "name": "Cube.007_Material.012_0",
      "primitives": [
        {
          "attributes": {
            "NORMAL": 121,
            "POSITION": 120,
            "TANGENT": 122,
            "TEXCOORD_0": 123
          },
          "indices": 124,
          "material": 13,
          "mode": 4
        }
      ]
    },
    {
      "name": "Cube.006_Material.014_0",
      "primitives": [
        {
          "attributes": {
            "NORMAL": 126,
            "POSITION": 125,
            "TANGENT": 127,
            "TEXCOORD_0": 128
          },
          "indices": 129,
          "material": 11,
          "mode": 4
        }
      ]
    }
  ],
  "nodes": [
    {
      "children": [
        1
      ],
      "name": "RootNode (gltf orientation matrix)",
      "rotation": [
        -0.70710678118654746,
        -0,
        -0,
        0.70710678118654757
      ]
    },
    {
      "children": [
        2
      ],
      "name": "RootNode (model correction matrix)"
    },
    {
      "children": [
        3
      ],
      "matrix": [
        1,
        0,
        0,
        0,
        0,
        0,
        1,
        0,
        0,
        -1,
        0,
        0,
        0,
        0,
        0,
        1
      ],
      "name": "FISHHOUSEEX1.fbx"
    },
    {
      "children": [
        4,
        6,
        8,
        10,
        12,
        14,
        16,
        18,
        20,
        22,
        24,
        26,
        28,
        30,
        32,
        34,
        36,
        38,
        40,
        42,
        44,
        46,
        48,
        50,
        52,
        54
      ],
      "name": "RootNode"
    },
    {
      "children": [
        5
      ],
      "matrix": [
        219.33541870117188,
        0,
        0,
        0,
        -0,
        -3.5734275429486727e-05,
        -219.33541870116898,
        0,
        0,
        219.33541870116898,
        -3.5734275429486727e-05,
        0,
        -810.66094970703125,
        -9.5169544219970703,
        128.07582092285156,
        1
      ],
      "name": "Plane"
    },
    {
      "mesh": 0,
      "name": "visibleFalse"
    },
    {
      "children": [
        7
      ],
      "matrix": [
        -67.704252267756758,
        32.616490112354704,
        -65.97195462933189,
        0,
        -70.070273827168748,
        -1.1616288607209979,
        71.335876977685871,
        0,
        22.500909996032345,
        94.52415136429741,
        23.640936068815954,
        0,
        -469.04397583007812,
        54.184638977050781,
        -197.06417846679688,
        1
      ],
      "name": "Cube.011"
    },
    {
      "mesh": 1,
      "name": "Cube.011_Material.002_0"
    },
    {
      "children": [
        9
      ],
      "matrix": [
        17.164040640869189,
        0,
        -22.366553767065614,
        0,
        -22.366553767065597,
        -1.2323720960496758e-06,
        -17.164040640869178,
        0,
        -1.2374365245054268e-06,
        35.684242248535128,
        -9.496058762526385e-07,
        0,
        -278.37509155273438,
        32.7308349609375,
        -20.846250534057617,
        1
      ],
      "name": "Cylinder.004"
    },
    {
      "mesh": 2,
      "name": "Cylinder.004_Material_0"
    },
    {
      "children": [
        11
      ],
      "matrix": [
        -18.243363168727306,
        0,
        21.495272011081187,
        0,
        21.495272011080779,
        5.4894549589606421e-06,
        18.243363168726962,
        0,
        -5.2972951736781789e-06,
        35.684242248534481,
        -4.4958947069626789e-06,
        0,
        -282.27996826171875,
        32.7308349609375,
        -84.572418212890625,
        1
      ],
      "name": "Cylinder.003"
    },
    {
      "mesh": 3,
      "name": "Cylinder.003_Material_0"
    },
    {
      "children": [
        13
      ],
      "matrix": [
        32.18684087184397,
        7.5233030589252134,
        -23.798233054779629,
        0,
        -0.83541505347647438,
        -38.489314253040035,
        -13.297463988842788,
        0,
        -24.945089375459585,
        10.99637960582441,
        -30.261680532269708,
        0,
        -275.57968139648438,
        41.478481292724609,
        -80.031517028808594,
        1
      ],
      "name": "Cube.027"
    },
    {
      "mesh": 4,
      "name": "Cube.027_Material.005_0"
    },
    {
      "children": [
        15
      ],
      "matrix": [
        17.439180837348996,
        1.7311272234625004,
        36.767194212601623,
        0,
        -4.3467454734829936,
        -40.303562025244801,
        3.9593522679115538,
        0,
        36.550351126641665,
        -5.6190617030777208,
        -17.071764264961541,
        0,
        -276.59686279296875,
        41.478481292724609,
        -93.676010131835938,
        1
      ],
      "name": "Cube.026"
    },
    {
      "mesh": 5,
      "name": "Cube.026_Material.005_0"
    },
    {
      "children": [
        17
      ],
      "matrix": [
        27.913624930445138,
        1.7311467291517593,
        29.610494507860281,
        0,
        -2.9163300586789864,
        -40.303555091460062,
        5.1055111883047521,
        0,
        29.517324611028993,
        -5.6191054770802973,
        -27.497279110246474,
        0,
        -274.22555541992188,
        44.32781982421875,
        -32.199264526367188,
        1
      ],
      "name": "Cube.025"
    },
    {
      "mesh": 6,
      "name": "Cube.025_Material.005_0"
    },
    {
      "children": [
        19
      ],
      "matrix": [
        23.294526760482633,
        7.5232914501171093,
        -32.55324114079108,
        0,
        -4.8895582598871492,
        -38.489322627387693,
        -12.394045060838456,
        0,
        -33.051547922314356,
        10.996370371848824,
        -21.10976493488953,
        0,
        -269.05618286132812,
        44.32781982421875,
        -19.531143188476562,
        1
      ],
      "name": "Cube.024"
    },
    {
      "mesh": 7,
      "name": "Cube.024_Material.005_0"
    },
    {
      "children": [
        21
      ],
      "matrix": [
        4.6053037847405767,
        -6.3555944577152816,
        39.966815070690309,
        0,
        -14.223863403299479,
        -37.912505223014485,
        -4.3899243859767001,
        0,
        37.886938905315816,
        -13.460910078323101,
        -6.5062214280160484,
        0,
        -283.76409912109375,
        40.287166595458984,
        -21.264892578125,
        1
      ],
      "name": "Cube.023"
    },
    {
      "mesh": 8,
      "name": "Cube.023_Material.005_0"
    },
    {
      "children": [
        23
      ],
      "matrix": [
        19.038279468208938,
        0.6790842894775232,
        12.536826756873523,
        0,
        11.768903507803538,
        -8.8974093709948416,
        -17.390172754483014,
        0,
        2.1674008426399016,
        10.401164380304861,
        -3.8547912659200017,
        0,
        -298.2930908203125,
        14.692952156066895,
        263.20175170898438,
        1
      ],
      "name": "Cylinder.002"
    },
    {
      "mesh": 9,
      "name": "Cylinder.002_Material.011_0"
    },
    {
      "children": [
        25
      ],
      "matrix": [
        5.7055191993713379,
        0,
        0,
        0,
        0,
        4.1984156063124987,
        -3.863451271993295,
        0,
        0,
        17.632261966327054,
        19.160993268028019,
        0,
        -302.58230590820312,
        8.7542505264282227,
        285.63226318359375,
        1
      ],
      "name": "Cube.005"
    },
    {
      "mesh": 10,
      "name": "Cube.005_Material.007_0"
    },
    {
      "children": [
        27
      ],
      "matrix": [
        3.2471354753414294,
        -25.329699544681382,
        -38.898840231878388,
        0,
        -46.029914982511556,
        3.2805985154648898,
        -5.978634406676413,
        0,
        5.9968694960964477,
        38.89602293277364,
        -24.827267880777892,
        0,
        -369.02932739257812,
        27.820331573486328,
        250.41804504394531,
        1
      ],
      "name": "Cube.003"
    },
    {
      "mesh": 11,
      "name": "Cube.003_Material.000_0"
    },
    {
      "children": [
        29
      ],
      "matrix": [
        -80.837780400460744,
        32.616481887783927,
        -49.004268887421979,
        0,
        -52.178040269051593,
        -1.1616576865604467,
        85.300074238540319,
        0,
        27.252621408006256,
        94.524153848014535,
        17.957699343422608,
        0,
        -480.34432983398438,
        54.184638977050781,
        -75.837348937988281,
        1
      ],
      "name": "Cube.010"
    },
    {
      "mesh": 12,
      "name": "Cube.010_Material.002_0"
    },
    {
      "children": [
        31
      ],
      "matrix": [
        -3.9146640723230703,
        8.7380723520053515e-16,
        -6.8279612641427212,
        0,
        -7.5698052093545023,
        -3.8141140896754048e-07,
        4.3399842707316036,
        0,
        -1.0419236690732805e-06,
        27.476135253906222,
        5.9736442499038237e-07,
        0,
        -477.5302734375,
        31.546834945678711,
        -81.802276611328125,
        1
      ],
      "name": "Cube.009"
    },
    {
      "mesh": 13,
      "name": "Cube.009_Material.004_0"
    },
    {
      "children": [
        33
      ],
      "matrix": [
        33.450439726112222,
        2.7289245945968549e-06,
        -94.239410844141418,
        0,
        -90.145881887776554,
        29.152799784523303,
        -31.997433792063749,
        0,
        27.473425888321213,
        95.656230295813714,
        9.7517421804093392,
        0,
        -521.1455078125,
        38.325691223144531,
        179.819091796875,
        1
      ],
      "name": "Cube.123"
    },
    {
      "mesh": 14,
      "name": "Cube.123_Material.002_0"
    },
    {
      "children": [
        35
      ],
      "matrix": [
        -7.8372747228070825,
        3.0506419663671973e-08,
        0.72304720514132792,
        0,
        0.80160465086819521,
        1.6958315386494913e-06,
        8.6887769197667879,
        0,
        -4.4176634880910329e-07,
        31.566566467284556,
        -6.1202465505030045e-06,
        0,
        -521.38494873046875,
        30.300867080688477,
        108.46659851074219,
        1
      ],
      "name": "Cube.125"
    },
    {
      "mesh": 15,
      "name": "Cube.125_Material.004_0"
    },
    {
      "children": [
        37
      ],
      "matrix": [
        132.22511291501098,
        6.9999391933411368e-21,
        -8.6168846399482774e-05,
        0,
        -8.6168846399481622e-05,
        -2.1542205228779786e-05,
        -132.22511291500925,
        0,
        -1.4038687008561826e-11,
        132.22511291503733,
        -2.1542205228779786e-05,
        0,
        -61.200481414794922,
        81.405868530273438,
        -0.79271793365478516,
        1
      ],
      "name": "Cube.130"
    },
    {
      "mesh": 16,
      "name": "Cube.130_Material.003_0"
    },
    {
      "children": [
        39
      ],
      "matrix": [
        -99.357078288104418,
        -1.3183897411572109e-14,
        11.321195527533558,
        0,
        11.321195527533343,
        1.9470717396144349e-05,
        99.357078288102514,
        0,
        -2.2043183375841657e-06,
        99.999999999998096,
        -1.9345538881943014e-05,
        0,
        -735.1602783203125,
        16.217660903930664,
        122.04418182373047,
        1
      ],
      "name": "Cube.140"
    },
    {
      "mesh": 17,
      "name": "Cube.140_Material.008_0"
    },
    {
      "children": [
        41
      ],
      "matrix": [
        -47.999491628991692,
        -1.8483383389339507,
        15.819187397666623,
        0,
        15.829767946450762,
        3.731529344870314e-06,
        48.031596176915443,
        0,
        -1.7554599739506871,
        50.539049997157072,
        0.57854282703036486,
        0,
        -884.0628662109375,
        24.625360488891602,
        137.70028686523438,
        1
      ],
      "name": "Cube"
    },
    {
      "mesh": 18,
      "name": "Cube_Material.000_0"
    },
    {
      "children": [
        43
      ],
      "matrix": [
        2.7250158323478213,
        -1.1616593554109753,
        -1.6599902036418323e-09,
        0,
        21.010100152763012,
        49.285408228677497,
        0.84356484450637526,
        0,
        -0.058759135045751525,
        -0.13783695568446974,
        9.5166198477673962,
        0,
        -283.79290771484375,
        54.848064422607422,
        188.41217041015625,
        1
      ],
      "name": "Cube.022"
    },
    {
      "mesh": 19,
      "name": "Cube.022_Material.010_0"
    },
    {
      "children": [
        45
      ],
      "matrix": [
        5.6458873050376823,
        5.365822356848806e-08,
        0.82273958942206982,
        0,
        0.55711219964259573,
        4.1984156116072642,
        -3.8230722833366291,
        0,
        -2.7630281236485121,
        17.632261940067377,
        18.960731513614586,
        0,
        -435.99649047851562,
        8.7542505264282227,
        279.24343872070312,
        1
      ],
      "name": "Cube.004"
    },
    {
      "mesh": 20,
      "name": "Cube.004_Material.007_0"
    },
    {
      "children": [
        47
      ],
      "matrix": [
        20.424580896273781,
        2.6418324977992014,
        -32.751202525747168,
        0,
        1.3980909458614708,
        -38.597981606065353,
        -2.2415659539386312,
        0,
        -32.827808892696467,
        -0.00015804666005106834,
        -20.472367552977396,
        0,
        -414.1248779296875,
        47.086387634277344,
        -276.7322998046875,
        1
      ],
      "name": "Cube.021"
    },
    {
      "mesh": 21,
      "name": "Cube.021_Material.014_0"
    },
    {
      "children": [
        49
      ],
      "matrix": [
        20.424580896273781,
        2.6418324977992014,
        -32.751202525747168,
        0,
        1.3980909458614708,
        -38.597981606065353,
        -2.2415659539386312,
        0,
        -32.827808892696467,
        -0.00015804666005106834,
        -20.472367552977396,
        0,
        -296.39144897460938,
        53.746868133544922,
        -273.07318115234375,
        1
      ],
      "name": "Cube.020"
    },
    {
      "mesh": 22,
      "name": "Cube.020_Material.014_0"
    },
    {
      "children": [
        51
      ],
      "matrix": [
        -4.7455381522575584,
        -1.2450022454477708e-15,
        -5.7767012345764401,
        0,
        -6.4043270512197017,
        6.2574460096027088e-07,
        5.2611303799454072,
        0,
        1.7491884455795065e-06,
        29.98406219482413,
        -1.4369516790276511e-06,
        0,
        -357.27157592773438,
        48.707084655761719,
        -272.15631103515625,
        1
      ],
      "name": "Cube.008"
    },
    {
      "mesh": 23,
      "name": "Cube.008_Material.013_0"
    },
    {
      "children": [
        53
      ],
      "matrix": [
        91.923960617939187,
        9.572882367716481e-07,
        -23.926388340189032,
        0,
        -22.887080052761224,
        27.691318529457117,
        -87.930990210804595,
        0,
        6.9752150980477872,
        90.860758706903354,
        26.798423390860556,
        0,
        -358.17782592773438,
        81.455276489257812,
        -272.1591796875,
        1
      ],
      "name": "Cube.007"
    },
    {
      "mesh": 24,
      "name": "Cube.007_Material.012_0"
    },
    {
      "children": [
        55
      ],
      "matrix": [
        20.424580896273781,
        2.6418324977992014,
        -32.751202525747168,
        0,
        1.3980909458614708,
        -38.597981606065353,
        -2.2415659539386312,
        0,
        -32.827808892696467,
        -0.00015804666005106834,
        -20.472367552977396,
        0,
        -356.44525146484375,
        42.137630462646484,
        -273.28915405273438,
        1
      ],
      "name": "Cube.006"
    },
    {
      "mesh": 25,
      "name": "Cube.006_Material.014_0"
    }
  ],
  "samplers": [
    {
      "magFilter": 9729,
      "minFilter": 9987,
      "wrapS": 10497,
      "wrapT": 10497
    }
  ],
  "scene": 0,
  "scenes": [
    {
      "name": "OSG_Scene",
      "nodes": [
        0
      ]
    }
  ],
  "textures": [
    {
      "sampler": 0,
      "source": 0
    },
    {
      "sampler": 0,
      "source": 1
    },
    {
      "sampler": 0,
      "source": 2
    },
    {
      "sampler": 0,
      "source": 3
    },
    {
      "sampler": 0,
      "source": 4
    },
    {
      "sampler": 0,
      "source": 5
    },
    {
      "sampler": 0,
      "source": 6
    },
    {
      "sampler": 0,
      "source": 7
    },
    {
      "sampler": 0,
      "source": 8
    },
    {
      "sampler": 0,
      "source": 9
    },
    {
      "sampler": 0,
      "source": 10
    },
    {
      "sampler": 0,
      "source": 11
    },
    {
      "sampler": 0,
      "source": 12
    },
    {
      "sampler": 0,
      "source": 13
    }
  ]
}

