{
    "uri": "scene.gltf",
    "mimeType": "model/gltf+json",
    "validatorVersion": "2.0.0-dev.2.7",
    "validatedAt": "2019-01-21T14:12:53.610Z",
    "issues": {
        "numErrors": 0,
        "numWarnings": 0,
        "numInfos": 1,
        "numHints": 0,
        "messages": [
            {
                "code": "MESH_PRIMITIVE_UNUSED_TEXCOORD",
                "message": "Material does not use texture coordinates sets with indices (0).",
                "severity": 2,
                "pointer": "/meshes/0/primitives/1/material"
            }
        ],
        "truncated": false
    },
    "info": {
        "version": "2.0",
        "generator": "Khronos Blender glTF 2.0 I/O",
        "resources": [
            {
                "pointer": "/buffers/0",
                "mimeType": "application/gltf-buffer",
                "storage": "external",
                "uri": "scene.bin",
                "byteLength": 34132
            }
        ],
        "hasAnimations": false,
        "hasMaterials": true,
        "hasMorphTargets": false,
        "hasSkins": false,
        "hasTextures": false,
        "hasDefaultScene": true,
        "primitivesCount": 2,
        "maxAttributesUsed": 4
    }
}